%YAML 1.1
%TAG !u! tag:unity3d.com,2011:
--- !u!114 &11400000
MonoBehaviour:
  m_ObjectHideFlags: 0
  m_PrefabParentObject: {fileID: 0}
  m_PrefabInternal: {fileID: 0}
  m_GameObject: {fileID: 0}
  m_Enabled: 1
  m_EditorHideFlags: 0
  m_Script: {fileID: 11500000, guid: ff8f46ad16e0140bf8bb49bd08cd417d, type: 3}
  m_Name: Web Services Settings
  m_EditorClassIdentifier: 
  serverUrl: 
  apiKey: 
